product	aoi_pos_y	aoi_pos_h	aoi_pos_x	aoi_pos_w
b_c_1	182	402	481	221
b_c_2	182	402	721	222
b_c_3	182	428	961	221
b_c_4	182	402	1201	221
b_c_5	250	403	482	219
b_c_6	250	377	721	221
b_c_7	250	403	962	220
b_c_8	250	377	1201	221
b_c_9	250	404	482	221
b_c_10	250	404	722	221
b_c_11	250	404	962	221
b_c_12	250	377	1200	224
b_c_13	250	404	1199	224
b_c_14	250	428	479	224
b_c_15	250	403	719	224
b_c_16	250	402	959	224
b_c_17	250	402	479	222
b_c_18	250	402	719	222
b_c_19	250	402	959	222
b_c_20	250	402	1199	222
b_c_21	250	402	479	223
b_c_22	250	402	719	223
b_c_23	250	402	959	223
b_c_24	250	455	1199	222
b_c_25	250	401	481	221
b_c_26	250	401	721	222
b_c_27	250	375	961	221
b_c_28	250	401	1202	220
b_c_29	250	429	961	221
b_c_30	250	402	481	221
b_c_31	250	402	721	221
b_c_32	250	401	1201	221
b_c_33	250	402	482	220
b_c_34	250	402	722	220
b_c_35	250	402	962	220
b_c_36	250	402	1202	220
b_c_37	250	400	481	221
b_c_38	250	400	721	221
b_c_39	250	400	961	221
b_c_40	250	400	1201	221
b_c_41	250	403	481	222
b_c_42	250	428	721	221
b_c_43	250	403	961	222
b_c_44	250	403	1201	222
b_c_45	528	456	481	221
b_c_46	528	432	722	220
b_c_47	528	432	962	220
b_p_1	182	378	722	221
b_p_2	182	378	962	220
b_p_3	182	378	1202	220
b_p_4	183	377	482	220
b_p_5	250	379	482	220
b_p_6	250	379	722	220
b_p_7	250	379	962	220
b_p_8	250	379	1202	220
b_p_9	250	375	961	222
b_p_10	250	375	481	221
b_p_11	250	400	721	222
b_p_12	250	400	1201	222
b_p_13	250	376	482	221
b_p_14	250	376	722	220
b_p_15	250	376	962	220
b_p_16	250	402	1201	221
b_p_17	250	401	482	221
b_p_18	250	376	722	221
b_p_19	250	402	1202	220
b_p_20	250	375	962	220
b_p_21	250	402	482	221
b_p_22	250	376	721	222
b_p_23	250	376	962	221
b_p_24	250	402	1201	221
b_p_25	250	401	481	222
b_p_26	250	376	722	221
b_p_27	250	401	962	221
b_p_28	250	401	1202	220
b_p_29	250	375	721	222
b_p_30	250	401	961	222
b_p_31	250	376	1201	221
b_p_32	250	400	481	222
b_p_33	250	402	483	220
b_p_34	250	401	962	221
b_p_35	250	402	1202	220
b_p_36	250	400	721	222
b_p_37	250	378	1202	220
b_p_38	250	402	482	221
b_p_39	250	402	722	221
b_p_40	250	377	962	221
b_p_41	250	379	722	220
b_p_42	250	402	483	219
b_p_43	250	377	962	221
b_p_44	250	402	1202	221
b_p_45	250	538	1201	221
b_p_46	250	402	482	221
b_p_47	250	401	721	222
b_p_48	250	400	961	222
b_p_49	250	428	962	220
b_p_50	250	377	722	220
b_p_51	250	402	1202	220
b_p_52	250	399	482	215
b_p_53	250	401	482	221
b_p_54	250	535	721	222
b_p_55	250	376	961	222
b_p_56	250	400	1202	220
b_p_57	250	402	961	221
b_p_58	250	402	1201	222
b_p_59	250	400	481	223
b_p_60	250	400	721	223
b_p_61	250	429	481	221
b_p_62	250	378	722	220
b_p_63	250	403	961	221
b_p_64	250	402	1202	220
b_p_65	250	401	482	221
b_p_66	250	376	722	221
b_p_67	250	376	962	220
b_p_68	250	401	1201	221
b_p_69	250	379	723	220
b_p_70	250	403	962	221
b_p_71	250	402	482	221
b_p_72	250	403	1202	220
b_p_73	250	568	962	220
b_p_74	250	408	1203	219
b_p_75	250	378	482	221
b_p_76	250	402	722	220
b_p_77	250	402	961	221
b_p_78	250	401	482	221
b_p_79	250	401	721	221
b_p_80	250	401	1201	221
b_p_81	250	403	481	222
b_p_82	250	404	722	220
b_p_83	250	378	961	221
b_p_84	250	377	1201	222
b_p_85	250	427	482	222
b_p_86	250	402	722	221
b_p_87	250	563	961	222
b_p_88	250	402	1201	221
b_p_89	250	453	481	223
b_p_90	250	402	722	221
b_p_91	250	373	961	222
b_p_92	250	402	1202	221
b_p_93	250	404	482	221
b_p_94	250	377	722	221
b_p_95	250	377	962	221
b_p_96	250	404	1202	220
b_p_97	250	427	482	221
b_p_98	250	402	721	222
b_p_99	250	402	961	221
b_p_100	250	402	1202	220
b_p_101	250	401	482	221
b_p_102	250	401	722	221
b_p_103	250	401	962	220
b_p_104	250	375	1202	220
b_p_105	250	540	1201	221
b_p_106	250	403	962	220
b_p_107	250	429	483	220
b_p_108	250	377	722	221
b_p_109	250	377	482	221
b_p_110	250	403	1202	221
b_p_111	250	403	722	221
b_p_112	250	403	962	220
b_p_113	250	427	482	220
b_p_114	250	377	722	220
b_p_115	250	402	1201	222
b_p_116	250	401	962	221
b_p_117	250	401	482	221
b_p_118	250	401	722	220
b_p_119	250	401	962	221
b_p_120	250	401	1202	220
b_p_121	250	402	482	221
b_p_122	250	427	723	219
b_p_123	250	373	962	221
b_p_124	250	427	1203	219
b_p_125	250	402	721	221
b_p_126	250	402	1201	222
b_p_127	250	400	481	221
b_p_128	250	374	962	222
b_p_129	250	403	722	219
b_p_130	250	403	962	219
b_p_131	250	403	1202	219
b_p_132	250	402	481	221
b_p_133	581	403	481	221
b_y_1	183	563	481	221
b_y_2	183	374	721	222
b_y_3	183	403	961	221
b_y_4	183	402	1201	221
b_y_5	250	400	961	221
b_y_6	250	400	481	221
b_y_7	250	400	721	221
b_y_8	250	399	1201	221
b_y_9	250	402	482	220
b_y_10	250	403	722	220
b_y_11	250	403	962	220
b_y_12	250	402	1202	220
b_y_13	250	538	961	221
b_y_14	250	401	722	220
b_y_15	250	401	1202	220
b_y_16	250	400	482	220
b_y_17	250	405	482	220
b_y_18	250	428	962	220
b_y_19	250	429	1201	221
b_y_20	250	403	722	220
b_y_21	250	403	722	222
b_y_22	250	537	481	221
b_y_23	250	428	1201	221
b_y_24	250	401	962	220
b_y_25	250	377	722	220
b_y_26	250	402	962	220
b_y_27	250	402	1201	221
b_y_28	250	401	482	221
b_y_29	250	429	482	220
b_y_30	250	430	722	220
b_y_31	250	378	961	221
b_y_32	250	430	1202	220
b_y_33	250	539	480	222
b_y_34	250	404	721	221
b_y_35	250	404	961	221
b_y_36	250	429	1202	220
b_y_37	250	402	1201	221
b_y_38	250	427	482	220
b_y_39	250	401	721	221
b_y_40	250	402	961	221
b_y_41	250	376	482	220
b_y_42	250	428	722	220
b_y_43	250	428	961	221
b_y_44	250	427	1201	221
b_y_45	250	428	482	215
b_y_46	250	427	721	221
b_y_47	250	427	961	221
b_y_48	250	427	1201	221
b_y_49	250	403	962	220
b_y_50	250	428	482	215
b_y_51	250	402	722	220
b_y_52	250	402	1202	220
b_y_53	250	428	482	221
b_y_54	250	427	721	222
b_y_55	447	537	961	221
b_y_56	447	454	1201	222
c_c_1	182	402	721	221
c_c_2	182	402	1201	221
c_c_3	183	401	481	221
c_c_4	183	401	961	221
c_c_5	250	402	722	220
c_c_6	250	402	1202	220
c_c_7	250	401	482	220
c_c_8	250	427	961	221
c_c_9	250	401	481	221
c_c_10	250	376	721	221
c_c_11	250	401	961	221
c_c_12	250	376	1201	221
c_c_13	250	377	481	221
c_c_14	250	402	721	221
c_c_15	250	428	959	225
c_c_16	250	402	1201	221
c_c_17	250	430	482	220
c_c_18	250	408	722	220
c_c_19	250	404	963	219
c_c_20	250	377	1201	221
c_c_21	250	403	482	220
c_c_22	250	402	722	220
c_c_23	250	403	962	220
c_c_24	250	402	1202	220
c_c_25	250	404	482	220
c_c_26	250	404	722	220
c_c_27	250	404	962	220
c_c_28	250	404	1202	219
c_c_29	250	456	481	221
c_c_30	250	403	721	221
c_c_31	250	403	961	221
c_c_32	250	402	1201	221
c_c_33	250	401	481	221
c_c_34	250	401	721	221
c_c_35	250	401	961	221
c_c_36	250	402	1202	222
c_c_37	250	403	482	220
c_c_38	250	403	722	220
c_c_39	250	429	961	221
c_c_40	250	403	1202	220
c_c_41	250	401	481	221
c_c_42	250	454	720	222
c_c_43	250	402	961	221
c_c_44	250	402	1201	221
c_c_45	250	428	722	220
c_c_46	250	401	482	221
c_c_47	250	400	961	222
c_c_48	250	400	1201	221
c_c_49	559	375	481	221
c_c_50	559	427	722	220
c_c_51	559	401	962	220
c_p_1	182	402	480	223
c_p_2	182	402	720	223
c_p_3	182	402	960	223
c_p_4	182	402	1200	223
c_p_5	250	426	481	221
c_p_6	250	377	1201	220
c_p_7	250	425	721	221
c_p_8	250	401	960	221
c_p_9	250	376	481	222
c_p_10	250	376	721	221
c_p_11	250	376	1201	221
c_p_12	250	396	964	216
c_p_13	250	377	480	222
c_p_14	250	404	721	221
c_p_15	250	515	1201	221
c_p_16	250	380	964	216
c_p_17	250	401	962	222
c_p_18	250	375	1202	221
c_p_19	250	374	482	222
c_p_20	250	400	722	222
c_p_21	250	538	1200	224
c_p_22	250	376	480	224
c_p_23	250	512	721	222
c_p_24	250	401	962	221
c_p_25	250	403	482	221
c_p_26	250	377	721	222
c_p_27	250	377	961	222
c_p_28	250	377	1201	221
c_p_29	250	376	482	221
c_p_30	250	376	722	221
c_p_31	250	402	961	221
c_p_32	250	402	1202	220
c_p_33	250	375	483	220
c_p_34	250	400	721	222
c_p_35	250	375	962	220
c_p_36	250	400	1201	221
c_p_37	250	401	722	221
c_p_38	250	402	962	220
c_p_39	250	402	1202	220
c_p_40	250	376	482	221
c_p_41	250	375	481	222
c_p_42	250	375	720	222
c_p_43	250	400	961	221
c_p_44	250	400	1201	222
c_p_45	250	377	481	222
c_p_46	250	403	721	221
c_p_47	250	403	961	221
c_p_48	250	403	1201	220
c_p_49	250	403	481	222
c_p_50	250	403	722	221
c_p_51	250	403	961	221
c_p_52	250	375	1201	222
c_p_53	250	376	482	220
c_p_54	250	402	722	220
c_p_55	250	376	961	221
c_p_56	250	376	1201	220
c_p_57	250	377	959	224
c_p_58	250	402	1199	224
c_p_59	250	376	479	225
c_p_60	250	376	719	224
c_p_61	250	404	481	221
c_p_62	250	404	721	221
c_p_63	250	404	961	221
c_p_64	250	404	1200	222
c_p_65	250	401	481	221
c_p_66	250	426	720	222
c_p_67	250	375	961	221
c_p_68	250	375	1201	221
c_p_69	250	401	482	220
c_p_70	250	401	961	221
c_p_71	250	401	1201	221
c_p_72	250	400	721	221
c_p_73	250	402	1200	221
c_p_74	250	401	481	221
c_p_75	250	400	721	222
c_p_76	250	400	960	222
c_p_77	250	401	480	224
c_p_78	250	401	721	223
c_p_79	250	427	962	221
c_p_80	250	402	1201	223
c_p_81	250	402	481	222
c_p_82	250	402	721	222
c_p_83	250	401	961	222
c_p_84	250	401	1201	222
c_p_85	250	402	481	222
c_p_86	250	377	721	221
c_p_87	250	402	961	221
c_p_88	250	402	1200	222
c_p_89	250	401	720	224
c_p_90	250	428	962	220
c_p_91	250	453	1201	221
c_p_92	250	400	481	223
c_p_93	250	403	1202	220
c_p_94	250	377	721	222
c_p_95	250	427	961	221
c_p_96	250	401	481	222
c_p_97	250	402	482	221
c_p_98	250	402	722	221
c_p_99	250	402	962	220
c_p_100	250	375	1199	224
c_p_101	250	404	482	221
c_p_102	250	404	721	221
c_p_103	250	404	962	220
c_p_104	250	404	1202	220
c_p_105	250	402	482	221
c_p_106	250	428	722	220
c_p_107	250	402	962	219
c_p_108	250	402	1201	221
c_p_109	250	376	482	222
c_p_110	250	401	721	222
c_p_111	250	401	960	223
c_p_112	250	401	1201	222
c_p_113	250	378	482	220
c_p_114	250	377	721	221
c_p_115	250	377	961	220
c_p_116	250	426	1200	222
c_p_117	250	403	481	221
c_p_118	250	404	721	221
c_p_119	250	404	961	220
c_p_120	250	403	1201	221
c_p_121	250	401	480	224
c_p_122	250	400	724	216
c_p_123	250	404	964	216
c_p_124	250	404	1208	216
c_p_125	250	416	724	216
c_p_126	250	420	964	216
c_p_127	250	412	1208	216
c_p_128	250	428	482	220
c_p_129	250	428	720	223
c_p_130	250	376	961	221
c_p_131	250	428	1201	222
c_p_132	250	426	481	223
c_p_133	250	430	481	222
c_p_134	250	430	721	221
c_p_135	250	403	1201	221
c_p_136	250	376	960	223
c_p_137	250	402	481	222
c_p_138	250	401	722	220
c_p_139	250	402	962	220
c_p_140	250	401	1201	221
c_p_141	581	401	480	222
c_p_142	581	403	721	221
c_y_1	182	428	481	223
c_y_2	182	401	721	222
c_y_3	182	401	960	223
c_y_4	182	401	1200	223
c_y_5	250	426	481	223
c_y_6	250	426	721	223
c_y_7	250	403	1200	223
c_y_8	250	402	721	222
c_y_9	250	428	961	223
c_y_10	250	543	486	219
c_y_11	250	402	482	220
c_y_12	250	402	721	221
c_y_13	250	401	961	221
c_y_14	250	401	1201	220
c_y_15	250	403	482	221
c_y_16	250	403	722	221
c_y_17	250	428	962	221
c_y_18	250	541	1206	212
c_y_19	250	429	962	221
c_y_20	250	428	483	220
c_y_21	250	402	722	221
c_y_22	250	401	1201	221
c_y_23	250	402	721	222
c_y_24	250	428	962	221
c_y_25	250	427	483	220
c_y_26	250	401	1201	222
c_y_27	250	401	482	221
c_y_28	250	401	722	221
c_y_29	250	427	962	221
c_y_30	250	428	1201	222
c_y_31	250	403	1201	221
c_y_32	250	428	481	221
c_y_33	250	402	722	221
c_y_34	250	402	962	220
c_y_35	250	400	480	223
c_y_36	250	540	719	225
c_y_37	250	566	959	225
c_y_38	250	566	1205	218
c_y_39	250	431	722	220
c_y_40	250	402	960	222
c_y_41	250	430	482	220
c_y_42	250	567	1205	212
c_y_43	250	401	482	221
c_y_44	250	401	721	221
c_y_45	250	540	965	212
c_y_46	250	566	1205	212
c_y_47	250	428	722	220
c_y_48	250	427	481	221
c_y_49	250	565	965	212
c_y_50	250	565	1205	212
c_y_51	250	401	721	221
c_y_52	250	427	961	221
c_y_53	250	428	1200	222
c_y_54	250	565	486	212
c_y_55	250	403	1201	220
c_y_56	250	430	722	220
c_y_57	250	402	961	221
c_y_58	250	566	485	213
c_y_59	250	428	481	221
c_y_60	250	427	721	221
c_y_61	250	401	961	221
c_y_62	250	591	1204	213
c_y_63	531	428	482	220
c_y_64	535	472	724	215
