"study_id"	"trial_id_task"	"aoi_id_product"	"product"	"aoi_position_xywh"
"b"	"c"	1	"b_c_1"	"481|182|221|402"
"b"	"c"	2	"b_c_2"	"721|182|222|402"
"b"	"c"	3	"b_c_3"	"961|182|221|428"
"b"	"c"	4	"b_c_4"	"1201|182|221|402"
"b"	"c"	5	"b_c_5"	"482|624|219|403"
"b"	"c"	6	"b_c_6"	"721|624|221|377"
"b"	"c"	7	"b_c_7"	"962|624|220|403"
"b"	"c"	8	"b_c_8"	"1201|624|221|377"
"b"	"c"	9	"b_c_9"	"482|1040|221|404"
"b"	"c"	10	"b_c_10"	"722|1040|221|404"
"b"	"c"	11	"b_c_11"	"962|1040|221|404"
"b"	"c"	12	"b_c_12"	"1200|1040|224|377"
"b"	"c"	13	"b_c_13"	"1199|1458|224|404"
"b"	"c"	14	"b_c_14"	"479|1459|224|428"
"b"	"c"	15	"b_c_15"	"719|1459|224|403"
"b"	"c"	16	"b_c_16"	"959|1459|224|402"
"b"	"c"	17	"b_c_17"	"479|1901|222|402"
"b"	"c"	18	"b_c_18"	"719|1901|222|402"
"b"	"c"	19	"b_c_19"	"959|1901|222|402"
"b"	"c"	20	"b_c_20"	"1199|1901|222|402"
"b"	"c"	21	"b_c_21"	"479|2317|223|402"
"b"	"c"	22	"b_c_22"	"719|2317|223|402"
"b"	"c"	23	"b_c_23"	"959|2317|223|402"
"b"	"c"	24	"b_c_24"	"1199|2317|222|455"
"b"	"c"	25	"b_c_25"	"481|2785|221|401"
"b"	"c"	26	"b_c_26"	"721|2785|222|401"
"b"	"c"	27	"b_c_27"	"961|2785|221|375"
"b"	"c"	28	"b_c_28"	"1202|2785|220|401"
"b"	"c"	29	"b_c_29"	"961|3199|221|429"
"b"	"c"	30	"b_c_30"	"481|3200|221|402"
"b"	"c"	31	"b_c_31"	"721|3200|221|402"
"b"	"c"	32	"b_c_32"	"1201|3201|221|401"
"b"	"c"	33	"b_c_33"	"482|3643|220|402"
"b"	"c"	34	"b_c_34"	"722|3643|220|402"
"b"	"c"	35	"b_c_35"	"962|3643|220|402"
"b"	"c"	36	"b_c_36"	"1202|3643|220|402"
"b"	"c"	37	"b_c_37"	"481|4060|221|400"
"b"	"c"	38	"b_c_38"	"721|4060|221|400"
"b"	"c"	39	"b_c_39"	"961|4060|221|400"
"b"	"c"	40	"b_c_40"	"1201|4060|221|400"
"b"	"c"	41	"b_c_41"	"481|4475|222|403"
"b"	"c"	42	"b_c_42"	"721|4475|221|428"
"b"	"c"	43	"b_c_43"	"961|4475|222|403"
"b"	"c"	44	"b_c_44"	"1201|4475|222|403"
"b"	"c"	45	"b_c_45"	"481|4916|221|456"
"b"	"c"	46	"b_c_46"	"722|4916|220|432"
"b"	"c"	47	"b_c_47"	"962|4916|220|432"
"b"	"p"	1	"b_p_1"	"722|182|221|378"
"b"	"p"	2	"b_p_2"	"962|182|220|378"
"b"	"p"	3	"b_p_3"	"1202|182|220|378"
"b"	"p"	4	"b_p_4"	"482|183|220|377"
"b"	"p"	5	"b_p_5"	"482|571|220|379"
"b"	"p"	6	"b_p_6"	"722|571|220|379"
"b"	"p"	7	"b_p_7"	"962|571|220|379"
"b"	"p"	8	"b_p_8"	"1202|571|220|379"
"b"	"p"	9	"b_p_9"	"961|963|222|375"
"b"	"p"	10	"b_p_10"	"481|964|221|375"
"b"	"p"	11	"b_p_11"	"721|964|222|400"
"b"	"p"	12	"b_p_12"	"1201|964|222|400"
"b"	"p"	13	"b_p_13"	"482|1379|221|376"
"b"	"p"	14	"b_p_14"	"722|1379|220|376"
"b"	"p"	15	"b_p_15"	"962|1379|220|376"
"b"	"p"	16	"b_p_16"	"1201|1379|221|402"
"b"	"p"	17	"b_p_17"	"482|1795|221|401"
"b"	"p"	18	"b_p_18"	"722|1795|221|376"
"b"	"p"	19	"b_p_19"	"1202|1795|220|402"
"b"	"p"	20	"b_p_20"	"962|1796|220|375"
"b"	"p"	21	"b_p_21"	"482|2211|221|402"
"b"	"p"	22	"b_p_22"	"721|2211|222|376"
"b"	"p"	23	"b_p_23"	"962|2211|221|376"
"b"	"p"	24	"b_p_24"	"1201|2211|221|402"
"b"	"p"	25	"b_p_25"	"481|2628|222|401"
"b"	"p"	26	"b_p_26"	"722|2628|221|376"
"b"	"p"	27	"b_p_27"	"962|2628|221|401"
"b"	"p"	28	"b_p_28"	"1202|2628|220|401"
"b"	"p"	29	"b_p_29"	"721|3043|222|375"
"b"	"p"	30	"b_p_30"	"961|3043|222|401"
"b"	"p"	31	"b_p_31"	"1201|3043|221|376"
"b"	"p"	32	"b_p_32"	"481|3044|222|400"
"b"	"p"	33	"b_p_33"	"483|3458|220|402"
"b"	"p"	34	"b_p_34"	"962|3458|221|401"
"b"	"p"	35	"b_p_35"	"1202|3458|220|402"
"b"	"p"	36	"b_p_36"	"721|3459|222|400"
"b"	"p"	37	"b_p_37"	"1202|3873|220|378"
"b"	"p"	38	"b_p_38"	"482|3874|221|402"
"b"	"p"	39	"b_p_39"	"722|3874|221|402"
"b"	"p"	40	"b_p_40"	"962|3874|221|377"
"b"	"p"	41	"b_p_41"	"722|4288|220|379"
"b"	"p"	42	"b_p_42"	"483|4290|219|402"
"b"	"p"	43	"b_p_43"	"962|4290|221|377"
"b"	"p"	44	"b_p_44"	"1202|4290|221|402"
"b"	"p"	45	"b_p_45"	"1201|4704|221|538"
"b"	"p"	46	"b_p_46"	"482|4705|221|402"
"b"	"p"	47	"b_p_47"	"721|4706|222|401"
"b"	"p"	48	"b_p_48"	"961|4707|222|400"
"b"	"p"	49	"b_p_49"	"962|5256|220|428"
"b"	"p"	50	"b_p_50"	"722|5257|220|377"
"b"	"p"	51	"b_p_51"	"1202|5257|220|402"
"b"	"p"	52	"b_p_52"	"482|5261|215|399"
"b"	"p"	53	"b_p_53"	"482|5699|221|401"
"b"	"p"	54	"b_p_54"	"721|5699|222|535"
"b"	"p"	55	"b_p_55"	"961|5699|222|376"
"b"	"p"	56	"b_p_56"	"1202|5700|220|400"
"b"	"p"	57	"b_p_57"	"961|6248|221|402"
"b"	"p"	58	"b_p_58"	"1201|6248|222|402"
"b"	"p"	59	"b_p_59"	"481|6249|223|400"
"b"	"p"	60	"b_p_60"	"721|6249|223|400"
"b"	"p"	61	"b_p_61"	"481|6663|221|429"
"b"	"p"	62	"b_p_62"	"722|6663|220|378"
"b"	"p"	63	"b_p_63"	"961|6663|221|403"
"b"	"p"	64	"b_p_64"	"1202|6664|220|402"
"b"	"p"	65	"b_p_65"	"482|7106|221|401"
"b"	"p"	66	"b_p_66"	"722|7106|221|376"
"b"	"p"	67	"b_p_67"	"962|7106|220|376"
"b"	"p"	68	"b_p_68"	"1201|7106|221|401"
"b"	"p"	69	"b_p_69"	"723|7521|220|379"
"b"	"p"	70	"b_p_70"	"962|7521|221|403"
"b"	"p"	71	"b_p_71"	"482|7522|221|402"
"b"	"p"	72	"b_p_72"	"1202|7522|220|403"
"b"	"p"	73	"b_p_73"	"962|7932|220|568"
"b"	"p"	74	"b_p_74"	"1203|7932|219|408"
"b"	"p"	75	"b_p_75"	"482|7938|221|378"
"b"	"p"	76	"b_p_76"	"722|7938|220|402"
"b"	"p"	77	"b_p_77"	"961|8514|221|402"
"b"	"p"	78	"b_p_78"	"482|8515|221|401"
"b"	"p"	79	"b_p_79"	"721|8515|221|401"
"b"	"p"	80	"b_p_80"	"1201|8515|221|401"
"b"	"p"	81	"b_p_81"	"481|8930|222|403"
"b"	"p"	82	"b_p_82"	"722|8930|220|404"
"b"	"p"	83	"b_p_83"	"961|8930|221|378"
"b"	"p"	84	"b_p_84"	"1201|8931|222|377"
"b"	"p"	85	"b_p_85"	"482|9348|222|427"
"b"	"p"	86	"b_p_86"	"722|9348|221|402"
"b"	"p"	87	"b_p_87"	"961|9348|222|563"
"b"	"p"	88	"b_p_88"	"1201|9348|221|402"
"b"	"p"	89	"b_p_89"	"481|9925|223|453"
"b"	"p"	90	"b_p_90"	"722|9926|221|402"
"b"	"p"	91	"b_p_91"	"961|9926|222|373"
"b"	"p"	92	"b_p_92"	"1202|9926|221|402"
"b"	"p"	93	"b_p_93"	"482|10391|221|404"
"b"	"p"	94	"b_p_94"	"722|10391|221|377"
"b"	"p"	95	"b_p_95"	"962|10391|221|377"
"b"	"p"	96	"b_p_96"	"1202|10391|220|404"
"b"	"p"	97	"b_p_97"	"482|10809|221|427"
"b"	"p"	98	"b_p_98"	"721|10809|222|402"
"b"	"p"	99	"b_p_99"	"961|10809|221|402"
"b"	"p"	100	"b_p_100"	"1202|10809|220|402"
"b"	"p"	101	"b_p_101"	"482|11251|221|401"
"b"	"p"	102	"b_p_102"	"722|11251|221|401"
"b"	"p"	103	"b_p_103"	"962|11251|220|401"
"b"	"p"	104	"b_p_104"	"1202|11251|220|375"
"b"	"p"	105	"b_p_105"	"1201|11664|221|540"
"b"	"p"	106	"b_p_106"	"962|11665|220|403"
"b"	"p"	107	"b_p_107"	"483|11666|220|429"
"b"	"p"	108	"b_p_108"	"722|11666|221|377"
"b"	"p"	109	"b_p_109"	"482|12217|221|377"
"b"	"p"	110	"b_p_110"	"1202|12217|221|403"
"b"	"p"	111	"b_p_111"	"722|12218|221|403"
"b"	"p"	112	"b_p_112"	"962|12218|220|403"
"b"	"p"	113	"b_p_113"	"482|12634|220|427"
"b"	"p"	114	"b_p_114"	"722|12634|220|377"
"b"	"p"	115	"b_p_115"	"1201|12634|222|402"
"b"	"p"	116	"b_p_116"	"962|12635|221|401"
"b"	"p"	117	"b_p_117"	"482|13076|221|401"
"b"	"p"	118	"b_p_118"	"722|13076|220|401"
"b"	"p"	119	"b_p_119"	"962|13076|221|401"
"b"	"p"	120	"b_p_120"	"1202|13076|220|401"
"b"	"p"	121	"b_p_121"	"482|13492|221|402"
"b"	"p"	122	"b_p_122"	"723|13492|219|427"
"b"	"p"	123	"b_p_123"	"962|13492|221|373"
"b"	"p"	124	"b_p_124"	"1203|13492|219|427"
"b"	"p"	125	"b_p_125"	"721|13933|221|402"
"b"	"p"	126	"b_p_126"	"1201|13933|222|402"
"b"	"p"	127	"b_p_127"	"481|13935|221|400"
"b"	"p"	128	"b_p_128"	"962|13935|222|374"
"b"	"p"	129	"b_p_129"	"722|14348|219|403"
"b"	"p"	130	"b_p_130"	"962|14348|219|403"
"b"	"p"	131	"b_p_131"	"1202|14348|219|403"
"b"	"p"	132	"b_p_132"	"481|14349|221|402"
"b"	"p"	133	"b_p_133"	"481|14764|221|403"
"b"	"y"	1	"b_y_1"	"481|183|221|563"
"b"	"y"	2	"b_y_2"	"721|183|222|374"
"b"	"y"	3	"b_y_3"	"961|183|221|403"
"b"	"y"	4	"b_y_4"	"1201|183|221|402"
"b"	"y"	5	"b_y_5"	"961|759|221|400"
"b"	"y"	6	"b_y_6"	"481|760|221|400"
"b"	"y"	7	"b_y_7"	"721|760|221|400"
"b"	"y"	8	"b_y_8"	"1201|760|221|399"
"b"	"y"	9	"b_y_9"	"482|1174|220|402"
"b"	"y"	10	"b_y_10"	"722|1174|220|403"
"b"	"y"	11	"b_y_11"	"962|1174|220|403"
"b"	"y"	12	"b_y_12"	"1202|1174|220|402"
"b"	"y"	13	"b_y_13"	"961|1590|221|538"
"b"	"y"	14	"b_y_14"	"722|1591|220|401"
"b"	"y"	15	"b_y_15"	"1202|1591|220|401"
"b"	"y"	16	"b_y_16"	"482|1592|220|400"
"b"	"y"	17	"b_y_17"	"482|2140|220|405"
"b"	"y"	18	"b_y_18"	"962|2141|220|428"
"b"	"y"	19	"b_y_19"	"1201|2141|221|429"
"b"	"y"	20	"b_y_20"	"722|2142|220|403"
"b"	"y"	21	"b_y_21"	"722|2581|222|403"
"b"	"y"	22	"b_y_22"	"481|2582|221|537"
"b"	"y"	23	"b_y_23"	"1201|2582|221|428"
"b"	"y"	24	"b_y_24"	"962|2583|220|401"
"b"	"y"	25	"b_y_25"	"722|3133|220|377"
"b"	"y"	26	"b_y_26"	"962|3133|220|402"
"b"	"y"	27	"b_y_27"	"1201|3133|221|402"
"b"	"y"	28	"b_y_28"	"482|3134|221|401"
"b"	"y"	29	"b_y_29"	"482|3549|220|429"
"b"	"y"	30	"b_y_30"	"722|3549|220|430"
"b"	"y"	31	"b_y_31"	"961|3549|221|378"
"b"	"y"	32	"b_y_32"	"1202|3549|220|430"
"b"	"y"	33	"b_y_33"	"480|3992|222|539"
"b"	"y"	34	"b_y_34"	"721|3992|221|404"
"b"	"y"	35	"b_y_35"	"961|3992|221|404"
"b"	"y"	36	"b_y_36"	"1202|3992|220|429"
"b"	"y"	37	"b_y_37"	"1201|4545|221|402"
"b"	"y"	38	"b_y_38"	"482|4546|220|427"
"b"	"y"	39	"b_y_39"	"721|4546|221|401"
"b"	"y"	40	"b_y_40"	"961|4546|221|402"
"b"	"y"	41	"b_y_41"	"482|4987|220|376"
"b"	"y"	42	"b_y_42"	"722|4987|220|428"
"b"	"y"	43	"b_y_43"	"961|4987|221|428"
"b"	"y"	44	"b_y_44"	"1201|4987|221|427"
"b"	"y"	45	"b_y_45"	"482|5426|215|428"
"b"	"y"	46	"b_y_46"	"721|5429|221|427"
"b"	"y"	47	"b_y_47"	"961|5429|221|427"
"b"	"y"	48	"b_y_48"	"1201|5429|221|427"
"b"	"y"	49	"b_y_49"	"962|5870|220|403"
"b"	"y"	50	"b_y_50"	"482|5871|215|428"
"b"	"y"	51	"b_y_51"	"722|5871|220|402"
"b"	"y"	52	"b_y_52"	"1202|5871|220|402"
"b"	"y"	53	"b_y_53"	"482|6312|221|428"
"b"	"y"	54	"b_y_54"	"721|6312|222|427"
"b"	"y"	55	"b_y_55"	"961|6312|221|537"
"b"	"y"	56	"b_y_56"	"1201|6312|222|454"
"c"	"c"	1	"c_c_1"	"721|182|221|402"
"c"	"c"	2	"c_c_2"	"1201|182|221|402"
"c"	"c"	3	"c_c_3"	"481|183|221|401"
"c"	"c"	4	"c_c_4"	"961|183|221|401"
"c"	"c"	5	"c_c_5"	"722|598|220|402"
"c"	"c"	6	"c_c_6"	"1202|598|220|402"
"c"	"c"	7	"c_c_7"	"482|599|220|401"
"c"	"c"	8	"c_c_8"	"961|599|221|427"
"c"	"c"	9	"c_c_9"	"481|1040|221|401"
"c"	"c"	10	"c_c_10"	"721|1040|221|376"
"c"	"c"	11	"c_c_11"	"961|1040|221|401"
"c"	"c"	12	"c_c_12"	"1201|1040|221|376"
"c"	"c"	13	"c_c_13"	"481|1455|221|377"
"c"	"c"	14	"c_c_14"	"721|1455|221|402"
"c"	"c"	15	"c_c_15"	"959|1455|225|428"
"c"	"c"	16	"c_c_16"	"1201|1455|221|402"
"c"	"c"	17	"c_c_17"	"482|1896|220|430"
"c"	"c"	18	"c_c_18"	"722|1896|220|408"
"c"	"c"	19	"c_c_19"	"963|1896|219|404"
"c"	"c"	20	"c_c_20"	"1201|1896|221|377"
"c"	"c"	21	"c_c_21"	"482|2339|220|403"
"c"	"c"	22	"c_c_22"	"722|2339|220|402"
"c"	"c"	23	"c_c_23"	"962|2339|220|403"
"c"	"c"	24	"c_c_24"	"1202|2339|220|402"
"c"	"c"	25	"c_c_25"	"482|2754|220|404"
"c"	"c"	26	"c_c_26"	"722|2754|220|404"
"c"	"c"	27	"c_c_27"	"962|2754|220|404"
"c"	"c"	28	"c_c_28"	"1202|2754|219|404"
"c"	"c"	29	"c_c_29"	"481|3171|221|456"
"c"	"c"	30	"c_c_30"	"721|3172|221|403"
"c"	"c"	31	"c_c_31"	"961|3172|221|403"
"c"	"c"	32	"c_c_32"	"1201|3172|221|402"
"c"	"c"	33	"c_c_33"	"481|3640|221|401"
"c"	"c"	34	"c_c_34"	"721|3640|221|401"
"c"	"c"	35	"c_c_35"	"961|3640|221|401"
"c"	"c"	36	"c_c_36"	"1202|3642|222|402"
"c"	"c"	37	"c_c_37"	"482|4055|220|403"
"c"	"c"	38	"c_c_38"	"722|4055|220|403"
"c"	"c"	39	"c_c_39"	"961|4055|221|429"
"c"	"c"	40	"c_c_40"	"1202|4055|220|403"
"c"	"c"	41	"c_c_41"	"481|4499|221|401"
"c"	"c"	42	"c_c_42"	"720|4499|222|454"
"c"	"c"	43	"c_c_43"	"961|4499|221|402"
"c"	"c"	44	"c_c_44"	"1201|4499|221|402"
"c"	"c"	45	"c_c_45"	"722|4966|220|428"
"c"	"c"	46	"c_c_46"	"482|4967|221|401"
"c"	"c"	47	"c_c_47"	"961|4968|222|400"
"c"	"c"	48	"c_c_48"	"1201|4968|221|400"
"c"	"c"	49	"c_c_49"	"481|5409|221|375"
"c"	"c"	50	"c_c_50"	"722|5409|220|427"
"c"	"c"	51	"c_c_51"	"962|5409|220|401"
"c"	"p"	1	"c_p_1"	"480|182|223|402"
"c"	"p"	2	"c_p_2"	"720|182|223|402"
"c"	"p"	3	"c_p_3"	"960|182|223|402"
"c"	"p"	4	"c_p_4"	"1200|182|223|402"
"c"	"p"	5	"c_p_5"	"481|598|221|426"
"c"	"p"	6	"c_p_6"	"1201|598|220|377"
"c"	"p"	7	"c_p_7"	"721|599|221|425"
"c"	"p"	8	"c_p_8"	"960|599|221|401"
"c"	"p"	9	"c_p_9"	"481|1039|222|376"
"c"	"p"	10	"c_p_10"	"721|1039|221|376"
"c"	"p"	11	"c_p_11"	"1201|1039|221|376"
"c"	"p"	12	"c_p_12"	"964|1040|216|396"
"c"	"p"	13	"c_p_13"	"480|1454|222|377"
"c"	"p"	14	"c_p_14"	"721|1454|221|404"
"c"	"p"	15	"c_p_15"	"1201|1454|221|515"
"c"	"p"	16	"c_p_16"	"964|1456|216|380"
"c"	"p"	17	"c_p_17"	"962|1981|222|401"
"c"	"p"	18	"c_p_18"	"1202|1981|221|375"
"c"	"p"	19	"c_p_19"	"482|1982|222|374"
"c"	"p"	20	"c_p_20"	"722|1982|222|400"
"c"	"p"	21	"c_p_21"	"1200|2395|224|538"
"c"	"p"	22	"c_p_22"	"480|2396|224|376"
"c"	"p"	23	"c_p_23"	"721|2396|222|512"
"c"	"p"	24	"c_p_24"	"962|2396|221|401"
"c"	"p"	25	"c_p_25"	"482|2947|221|403"
"c"	"p"	26	"c_p_26"	"721|2947|222|377"
"c"	"p"	27	"c_p_27"	"961|2947|222|377"
"c"	"p"	28	"c_p_28"	"1201|2947|221|377"
"c"	"p"	29	"c_p_29"	"482|3365|221|376"
"c"	"p"	30	"c_p_30"	"722|3365|221|376"
"c"	"p"	31	"c_p_31"	"961|3365|221|402"
"c"	"p"	32	"c_p_32"	"1202|3365|220|402"
"c"	"p"	33	"c_p_33"	"483|3782|220|375"
"c"	"p"	34	"c_p_34"	"721|3782|222|400"
"c"	"p"	35	"c_p_35"	"962|3782|220|375"
"c"	"p"	36	"c_p_36"	"1201|3782|221|400"
"c"	"p"	37	"c_p_37"	"722|4197|221|401"
"c"	"p"	38	"c_p_38"	"962|4197|220|402"
"c"	"p"	39	"c_p_39"	"1202|4197|220|402"
"c"	"p"	40	"c_p_40"	"482|4198|221|376"
"c"	"p"	41	"c_p_41"	"481|4613|222|375"
"c"	"p"	42	"c_p_42"	"720|4613|222|375"
"c"	"p"	43	"c_p_43"	"961|4613|221|400"
"c"	"p"	44	"c_p_44"	"1201|4613|222|400"
"c"	"p"	45	"c_p_45"	"481|5027|222|377"
"c"	"p"	46	"c_p_46"	"721|5027|221|403"
"c"	"p"	47	"c_p_47"	"961|5027|221|403"
"c"	"p"	48	"c_p_48"	"1201|5027|220|403"
"c"	"p"	49	"c_p_49"	"481|5444|222|403"
"c"	"p"	50	"c_p_50"	"722|5444|221|403"
"c"	"p"	51	"c_p_51"	"961|5444|221|403"
"c"	"p"	52	"c_p_52"	"1201|5444|222|375"
"c"	"p"	53	"c_p_53"	"482|5860|220|376"
"c"	"p"	54	"c_p_54"	"722|5860|220|402"
"c"	"p"	55	"c_p_55"	"961|5860|221|376"
"c"	"p"	56	"c_p_56"	"1201|5860|220|376"
"c"	"p"	57	"c_p_57"	"959|6275|224|377"
"c"	"p"	58	"c_p_58"	"1199|6275|224|402"
"c"	"p"	59	"c_p_59"	"479|6276|225|376"
"c"	"p"	60	"c_p_60"	"719|6276|224|376"
"c"	"p"	61	"c_p_61"	"481|6690|221|404"
"c"	"p"	62	"c_p_62"	"721|6690|221|404"
"c"	"p"	63	"c_p_63"	"961|6690|221|404"
"c"	"p"	64	"c_p_64"	"1200|6690|222|404"
"c"	"p"	65	"c_p_65"	"481|7109|221|401"
"c"	"p"	66	"c_p_66"	"720|7109|222|426"
"c"	"p"	67	"c_p_67"	"961|7109|221|375"
"c"	"p"	68	"c_p_68"	"1201|7109|221|375"
"c"	"p"	69	"c_p_69"	"482|7550|220|401"
"c"	"p"	70	"c_p_70"	"961|7550|221|401"
"c"	"p"	71	"c_p_71"	"1201|7550|221|401"
"c"	"p"	72	"c_p_72"	"721|7551|221|400"
"c"	"p"	73	"c_p_73"	"1200|7964|221|402"
"c"	"p"	74	"c_p_74"	"481|7965|221|401"
"c"	"p"	75	"c_p_75"	"721|7966|222|400"
"c"	"p"	76	"c_p_76"	"960|7966|222|400"
"c"	"p"	77	"c_p_77"	"480|8380|224|401"
"c"	"p"	78	"c_p_78"	"721|8380|223|401"
"c"	"p"	79	"c_p_79"	"962|8380|221|427"
"c"	"p"	80	"c_p_80"	"1201|8380|223|402"
"c"	"p"	81	"c_p_81"	"481|8821|222|402"
"c"	"p"	82	"c_p_82"	"721|8821|222|402"
"c"	"p"	83	"c_p_83"	"961|8822|222|401"
"c"	"p"	84	"c_p_84"	"1201|8822|222|401"
"c"	"p"	85	"c_p_85"	"481|9238|222|402"
"c"	"p"	86	"c_p_86"	"721|9238|221|377"
"c"	"p"	87	"c_p_87"	"961|9238|221|402"
"c"	"p"	88	"c_p_88"	"1200|9238|222|402"
"c"	"p"	89	"c_p_89"	"720|9654|224|401"
"c"	"p"	90	"c_p_90"	"962|9654|220|428"
"c"	"p"	91	"c_p_91"	"1201|9654|221|453"
"c"	"p"	92	"c_p_92"	"481|9655|223|400"
"c"	"p"	93	"c_p_93"	"1202|10120|220|403"
"c"	"p"	94	"c_p_94"	"721|10121|222|377"
"c"	"p"	95	"c_p_95"	"961|10121|221|427"
"c"	"p"	96	"c_p_96"	"481|10122|222|401"
"c"	"p"	97	"c_p_97"	"482|10563|221|402"
"c"	"p"	98	"c_p_98"	"722|10563|221|402"
"c"	"p"	99	"c_p_99"	"962|10563|220|402"
"c"	"p"	100	"c_p_100"	"1199|10563|224|375"
"c"	"p"	101	"c_p_101"	"482|10976|221|404"
"c"	"p"	102	"c_p_102"	"721|10976|221|404"
"c"	"p"	103	"c_p_103"	"962|10976|220|404"
"c"	"p"	104	"c_p_104"	"1202|10977|220|404"
"c"	"p"	105	"c_p_105"	"482|11393|221|402"
"c"	"p"	106	"c_p_106"	"722|11393|220|428"
"c"	"p"	107	"c_p_107"	"962|11393|219|402"
"c"	"p"	108	"c_p_108"	"1201|11393|221|402"
"c"	"p"	109	"c_p_109"	"482|11835|222|376"
"c"	"p"	110	"c_p_110"	"721|11835|222|401"
"c"	"p"	111	"c_p_111"	"960|11835|223|401"
"c"	"p"	112	"c_p_112"	"1201|11835|222|401"
"c"	"p"	113	"c_p_113"	"482|12250|220|378"
"c"	"p"	114	"c_p_114"	"721|12251|221|377"
"c"	"p"	115	"c_p_115"	"961|12251|220|377"
"c"	"p"	116	"c_p_116"	"1200|12251|222|426"
"c"	"p"	117	"c_p_117"	"481|12692|221|403"
"c"	"p"	118	"c_p_118"	"721|12692|221|404"
"c"	"p"	119	"c_p_119"	"961|12692|220|404"
"c"	"p"	120	"c_p_120"	"1201|12692|221|403"
"c"	"p"	121	"c_p_121"	"480|13109|224|401"
"c"	"p"	122	"c_p_122"	"724|13112|216|400"
"c"	"p"	123	"c_p_123"	"964|13112|216|404"
"c"	"p"	124	"c_p_124"	"1208|13112|216|404"
"c"	"p"	125	"c_p_125"	"724|13520|216|416"
"c"	"p"	126	"c_p_126"	"964|13520|216|420"
"c"	"p"	127	"c_p_127"	"1208|13520|216|412"
"c"	"p"	128	"c_p_128"	"482|13523|220|428"
"c"	"p"	129	"c_p_129"	"720|13964|223|428"
"c"	"p"	130	"c_p_130"	"961|13964|221|376"
"c"	"p"	131	"c_p_131"	"1201|13964|222|428"
"c"	"p"	132	"c_p_132"	"481|13965|223|426"
"c"	"p"	133	"c_p_133"	"481|14406|222|430"
"c"	"p"	134	"c_p_134"	"721|14406|221|430"
"c"	"p"	135	"c_p_135"	"1201|14406|221|403"
"c"	"p"	136	"c_p_136"	"960|14408|223|376"
"c"	"p"	137	"c_p_137"	"481|14848|222|402"
"c"	"p"	138	"c_p_138"	"722|14849|220|401"
"c"	"p"	139	"c_p_139"	"962|14849|220|402"
"c"	"p"	140	"c_p_140"	"1201|14849|221|401"
"c"	"p"	141	"c_p_141"	"480|15264|222|401"
"c"	"p"	142	"c_p_142"	"721|15264|221|403"
"c"	"y"	1	"c_y_1"	"481|182|223|428"
"c"	"y"	2	"c_y_2"	"721|182|222|401"
"c"	"y"	3	"c_y_3"	"960|182|223|401"
"c"	"y"	4	"c_y_4"	"1200|182|223|401"
"c"	"y"	5	"c_y_5"	"481|625|223|426"
"c"	"y"	6	"c_y_6"	"721|625|223|426"
"c"	"y"	7	"c_y_7"	"1200|1064|223|403"
"c"	"y"	8	"c_y_8"	"721|1065|222|402"
"c"	"y"	9	"c_y_9"	"961|1065|223|428"
"c"	"y"	10	"c_y_10"	"486|1068|219|543"
"c"	"y"	11	"c_y_11"	"482|1627|220|402"
"c"	"y"	12	"c_y_12"	"721|1628|221|402"
"c"	"y"	13	"c_y_13"	"961|1628|221|401"
"c"	"y"	14	"c_y_14"	"1201|1628|220|401"
"c"	"y"	15	"c_y_15"	"482|2043|221|403"
"c"	"y"	16	"c_y_16"	"722|2043|221|403"
"c"	"y"	17	"c_y_17"	"962|2043|221|428"
"c"	"y"	18	"c_y_18"	"1206|2047|212|541"
"c"	"y"	19	"c_y_19"	"962|2606|221|429"
"c"	"y"	20	"c_y_20"	"483|2607|220|428"
"c"	"y"	21	"c_y_21"	"722|2607|221|402"
"c"	"y"	22	"c_y_22"	"1201|2607|221|401"
"c"	"y"	23	"c_y_23"	"721|3048|222|402"
"c"	"y"	24	"c_y_24"	"962|3048|221|428"
"c"	"y"	25	"c_y_25"	"483|3049|220|427"
"c"	"y"	26	"c_y_26"	"1201|3049|222|401"
"c"	"y"	27	"c_y_27"	"482|3491|221|401"
"c"	"y"	28	"c_y_28"	"722|3491|221|401"
"c"	"y"	29	"c_y_29"	"962|3491|221|427"
"c"	"y"	30	"c_y_30"	"1201|3491|222|428"
"c"	"y"	31	"c_y_31"	"1201|3932|221|403"
"c"	"y"	32	"c_y_32"	"481|3933|221|428"
"c"	"y"	33	"c_y_33"	"722|3933|221|402"
"c"	"y"	34	"c_y_34"	"962|3933|220|402"
"c"	"y"	35	"c_y_35"	"480|4375|223|400"
"c"	"y"	36	"c_y_36"	"719|4377|225|540"
"c"	"y"	37	"c_y_37"	"959|4377|225|566"
"c"	"y"	38	"c_y_38"	"1205|4377|218|566"
"c"	"y"	39	"c_y_39"	"722|4960|220|431"
"c"	"y"	40	"c_y_40"	"960|4960|222|402"
"c"	"y"	41	"c_y_41"	"482|4961|220|430"
"c"	"y"	42	"c_y_42"	"1205|4965|212|567"
"c"	"y"	43	"c_y_43"	"482|5550|221|401"
"c"	"y"	44	"c_y_44"	"721|5550|221|401"
"c"	"y"	45	"c_y_45"	"965|5554|212|540"
"c"	"y"	46	"c_y_46"	"1205|5554|212|566"
"c"	"y"	47	"c_y_47"	"722|6137|220|428"
"c"	"y"	48	"c_y_48"	"481|6138|221|427"
"c"	"y"	49	"c_y_49"	"965|6142|212|565"
"c"	"y"	50	"c_y_50"	"1205|6142|212|565"
"c"	"y"	51	"c_y_51"	"721|6726|221|401"
"c"	"y"	52	"c_y_52"	"961|6726|221|427"
"c"	"y"	53	"c_y_53"	"1200|6726|222|428"
"c"	"y"	54	"c_y_54"	"486|6730|212|565"
"c"	"y"	55	"c_y_55"	"1201|7313|220|403"
"c"	"y"	56	"c_y_56"	"722|7314|220|430"
"c"	"y"	57	"c_y_57"	"961|7314|221|402"
"c"	"y"	58	"c_y_58"	"485|7318|213|566"
"c"	"y"	59	"c_y_59"	"481|7902|221|428"
"c"	"y"	60	"c_y_60"	"721|7903|221|427"
"c"	"y"	61	"c_y_61"	"961|7904|221|401"
"c"	"y"	62	"c_y_62"	"1204|7907|213|591"
"c"	"y"	63	"c_y_63"	"482|8516|220|428"
"c"	"y"	64	"c_y_64"	"724|8520|215|472"
