	trial_id_task	subject_id	aoi_id_product	aoi_position_xywh	aoi_saliency_mean	aoi_saliency_sum	aoi_visible_binary	et_samples_count	et_looked_binary	et_revisits_count	et_revisits_old	et_verify_binary	et_missing_prop
0	c	04	001	481|182|221|402	0.0744729	6616.32	1	183	1	2	1	0	0.0678813465171
1	c	04	002	721|182|222|402	0.11804	10534.4	1	96	1	1	1	0	0.0678813465171
2	c	04	003	961|182|221|428	0.0814331	7702.59	1	34	1	1	0	0	0.0678813465171
3	c	04	004	1201|182|221|402	0.0958991	8519.87	1	167	1	2	1	0	0.0678813465171
4	c	04	005	482|624|219|403	0.0997263	8801.55	1	50	1	1	0	0	0.0678813465171
5	c	04	006	721|624|221|377	0.0760408	6335.49	1	83	1	1	1	0	0.0678813465171
6	c	04	007	962|624|220|403	0.113391	10053.2	1	32	1	1	0	0	0.0678813465171
7	c	04	008	1201|624|221|377	0.123831	10317.2	1	48	1	1	0	0	0.0678813465171
8	c	04	009	482|1040|221|404	0.109097	9740.65	1	74	1	1	0	0	0.0678813465171
9	c	04	010	722|1040|221|404	0.143264	12791.1	1	148	1	1	0	0	0.0678813465171
10	c	04	011	962|1040|221|404	0.124291	11097.2	1	79	1	1	0	0	0.0678813465171
11	c	04	012	1200|1040|224|377	0.101011	8530.19	1	102	1	3	2	0	0.0678813465171
12	c	04	013	1199|1458|224|404	0.117738	10654.8	1	118	1	2	3	0	0.0678813465171
13	c	04	014	479|1459|224|428	0.174574	16736.7	1	62	1	1	0	0	0.0678813465171
14	c	04	015	719|1459|224|403	0.109888	9919.77	1	37	1	1	0	0	0.0678813465171
15	c	04	016	959|1459|224|402	0.208023	18732.0	1	101	1	2	1	0	0.0678813465171
16	c	04	017	479|1901|222|402	0.152986	13653.1	1	75	1	1	2	0	0.0678813465171
17	c	04	018	719|1901|222|402	0.0815251	7275.63	1	48	1	1	3	0	0.0678813465171
18	c	04	019	959|1901|222|402	0.149318	13325.7	1	63	1	1	3	0	0.0678813465171
19	c	04	020	1199|1901|222|402	0.170967	15257.8	1	1062	1	5	4	0	0.0678813465171
20	c	04	021	479|2317|223|402	0.0927539	8315.02	1	78	1	1	1	0	0.0678813465171
21	c	04	022	719|2317|223|402	0.0884312	7927.51	1	83	1	1	1	0	0.0678813465171
22	c	04	023	959|2317|223|402	0.0878991	7879.8	1	55	1	1	4	0	0.0678813465171
23	c	04	024	1199|2317|222|455	0.119239	12044.3	1	1359	1	8	6	0	0.0678813465171
24	c	04	025	481|2785|221|401	0.116775	10348.7	1	89	1	1	4	0	0.0678813465171
25	c	04	026	721|2785|222|401	0.102673	9140.17	1	146	1	2	1	0	0.0678813465171
26	c	04	027	961|2785|221|375	0.0951485	7885.43	1	237	1	1	1	0	0.0678813465171
27	c	04	028	1202|2785|220|401	0.202344	17850.8	1	593	1	4	4	1	0.0678813465171
28	c	04	029	961|3199|221|429	0.160885	15253.4	1	81	1	1	1	0	0.0678813465171
29	c	04	030	481|3200|221|402	0.16993	15096.9	1	69	1	1	0	0	0.0678813465171
30	c	04	031	721|3200|221|402	0.146007	12971.6	1	62	1	1	1	0	0.0678813465171
31	c	04	032	1201|3201|221|401	0.0781799	6928.38	1	84	1	2	2	0	0.0678813465171
32	c	04	033	482|3643|220|402	0.170636	15091.0	1	39	1	1	1	0	0.0678813465171
33	c	04	034	722|3643|220|402	0.164478	14546.4	1	172	1	2	1	0	0.0678813465171
34	c	04	035	962|3643|220|402	0.0933411	8255.09	1	9	0	0	2	0	0.0678813465171
35	c	04	036	1202|3643|220|402	0.156065	13802.4	1	69	1	1	1	0	0.0678813465171
36	c	04	037	481|4060|221|400	0.138719	12262.8	1	185	1	3	0	0	0.0678813465171
37	c	04	038	721|4060|221|400	0.124831	11035.1	1	142	1	3	2	0	0.0678813465171
38	c	04	039	961|4060|221|400	0.120789	10677.8	1	92	1	1	1	0	0.0678813465171
39	c	04	040	1201|4060|221|400	0.121581	10747.8	1	1	0	0	0	0	0.0678813465171
40	c	04	041	481|4475|222|403	0.109278	9776.63	1	19	0	0	0	0	0.0678813465171
41	c	04	042	721|4475|221|428	0.175628	16612.3	1	79	1	1	1	0	0.0678813465171
42	c	04	043	961|4475|222|403	0.16121	14422.8	1	58	1	1	2	0	0.0678813465171
43	c	04	044	1201|4475|222|403	0.125526	11230.3	1	42	1	1	1	0	0.0678813465171
44	c	04	045	481|4916|221|456	0.144923	14604.7	1	44	1	1	0	0	0.0678813465171
45	c	04	046	722|4916|220|432	0.148371	14101.2	1	121	1	2	2	0	0.0678813465171
46	c	04	047	962|4916|220|432	0.135036	12833.8	1	397	1	3	1	0	0.0678813465171
47	y	04	001	481|183|221|563	0.093852	11677.3	1	213	1	2	3	0	0.0695860296073
48	y	04	002	721|183|222|374	0.100823	8371.16	1	395	1	4	3	0	0.0695860296073
49	y	04	003	961|183|221|403	0.0881361	7849.66	1	107	1	2	3	0	0.0695860296073
50	y	04	004	1201|183|221|402	0.11953	10619.3	1	137	1	3	1	0	0.0695860296073
51	y	04	005	961|759|221|400	0.0814433	7199.59	1	219	1	2	1	0	0.0695860296073
52	y	04	006	481|760|221|400	0.0913628	8076.47	1	158	1	2	1	0	0.0695860296073
53	y	04	007	721|760|221|400	0.104894	9272.62	1	46	0	0	3	0	0.0695860296073
54	y	04	008	1201|760|221|399	0.104	9170.63	1	69	1	1	0	0	0.0695860296073
55	y	04	009	482|1174|220|402	0.0974077	8614.74	1	52	1	1	2	0	0.0695860296073
56	y	04	010	722|1174|220|403	0.0904179	8016.45	1	108	1	2	1	0	0.0695860296073
57	y	04	011	962|1174|220|403	0.0919985	8156.59	1	30	0	0	2	0	0.0695860296073
58	y	04	012	1202|1174|220|402	0.0836659	7399.41	1	174	1	2	2	0	0.0695860296073
59	y	04	013	961|1590|221|538	0.104949	12478.3	1	172	1	4	2	0	0.0695860296073
60	y	04	014	722|1591|220|401	0.0820485	7238.32	1	107	1	2	1	0	0.0695860296073
61	y	04	015	1202|1591|220|401	0.0713871	6297.77	1	99	1	2	1	0	0.0695860296073
62	y	04	016	482|1592|220|400	0.0759218	6681.12	1	80	1	1	0	0	0.0695860296073
63	y	04	017	482|2140|220|405	0.0773272	6889.85	1	95	1	1	0	0	0.0695860296073
64	y	04	018	962|2141|220|428	0.100037	9419.49	1	88	1	2	4	0	0.0695860296073
65	y	04	019	1201|2141|221|429	0.0740177	7017.55	1	442	1	2	1	0	0.0695860296073
66	y	04	020	722|2142|220|403	0.0866872	7685.69	1	123	1	2	4	0	0.0695860296073
67	y	04	021	722|2581|222|403	0.0870434	7787.43	1	434	1	4	2	0	0.0695860296073
68	y	04	022	481|2582|221|537	0.0843964	10015.9	1	115	1	2	1	0	0.0695860296073
69	y	04	023	1201|2582|221|428	0.0966901	9145.72	1	75	1	1	0	0	0.0695860296073
70	y	04	024	962|2583|220|401	0.07533	6645.61	1	178	1	3	4	0	0.0695860296073
71	y	04	025	722|3133|220|377	0.103059	8547.71	1	127	1	2	3	0	0.0695860296073
72	y	04	026	962|3133|220|402	0.0874096	7730.5	1	261	1	2	1	0	0.0695860296073
73	y	04	027	1201|3133|221|402	0.091729	8149.39	1	105	1	2	2	0	0.0695860296073
74	y	04	028	482|3134|221|401	0.0780574	6917.53	1	77	1	1	2	0	0.0695860296073
75	y	04	029	482|3549|220|429	0.106009	10005.2	1	84	1	2	1	0	0.0695860296073
76	y	04	030	722|3549|220|430	0.0679051	6423.82	1	157	1	2	4	0	0.0695860296073
77	y	04	031	961|3549|221|378	0.0989332	8264.68	1	60	1	1	1	0	0.0695860296073
78	y	04	032	1202|3549|220|430	0.154227	14589.9	1	107	1	2	1	0	0.0695860296073
79	y	04	033	480|3992|222|539	0.108982	13040.5	1	119	1	2	2	0	0.0695860296073
80	y	04	034	721|3992|221|404	0.0926893	8275.67	1	307	1	6	5	0	0.0695860296073
81	y	04	035	961|3992|221|404	0.0886856	7918.2	1	97	1	1	3	0	0.0695860296073
82	y	04	036	1202|3992|220|429	0.0587974	5549.3	1	125	1	2	1	0	0.0695860296073
83	y	04	037	1201|4545|221|402	0.0916571	8143.0	1	168	1	2	1	0	0.0695860296073
84	y	04	038	482|4546|220|427	0.0867342	8147.81	1	144	1	2	2	0	0.0695860296073
85	y	04	039	721|4546|221|401	0.075846	6721.55	1	244	1	4	4	0	0.0695860296073
86	y	04	040	961|4546|221|402	0.103434	9189.29	1	81	1	1	1	0	0.0695860296073
87	y	04	041	482|4987|220|376	0.0861938	7129.95	1	104	1	2	3	0	0.0695860296073
88	y	04	042	722|4987|220|428	0.0928785	8745.44	1	711	1	6	7	0	0.0695860296073
89	y	04	043	961|4987|221|428	0.0844142	7984.57	1	279	1	3	2	0	0.0695860296073
90	y	04	044	1201|4987|221|427	0.0854631	8064.89	1	65	1	1	1	0	0.0695860296073
91	y	04	045	482|5426|215|428	0.0877194	8071.94	1	175	1	3	3	0	0.0695860296073
92	y	04	046	721|5429|221|427	0.151408	14287.9	1	526	1	5	4	1	0.0695860296073
93	y	04	047	961|5429|221|427	0.110652	10441.9	1	40	0	0	2	0	0.0695860296073
94	y	04	048	1201|5429|221|427	0.0908772	8575.81	1	41	1	1	1	0	0.0695860296073
95	y	04	049	962|5870|220|403	0.111537	9888.83	1	97	1	2	3	0	0.0695860296073
96	y	04	050	482|5871|215|428	0.0942203	8670.15	1	126	1	2	2	0	0.0695860296073
97	y	04	051	722|5871|220|402	0.0763606	6753.34	1	238	1	4	4	0	0.0695860296073
98	y	04	052	1202|5871|220|402	0.0885109	7827.9	1	141	1	3	3	0	0.0695860296073
99	y	04	053	482|6312|221|428	0.107527	10170.8	1	128	1	3	3	0	0.0695860296073
100	y	04	054	721|6312|222|427	0.108496	10284.7	1	271	1	3	6	0	0.0695860296073
101	y	04	055	961|6312|221|537	0.103882	12328.4	1	221	1	4	2	0	0.0695860296073
102	y	04	056	1201|6312|222|454	0.0691897	6973.49	1	265	1	5	3	0	0.0695860296073
103	p	04	001	722|182|221|378	0.146857	12268.1	1	207	1	4	1	0	0.0361336262404
104	p	04	002	962|182|220|378	0.177023	14721.2	1	126	1	2	1	0	0.0361336262404
105	p	04	003	1202|182|220|378	0.140539	11687.2	1	132	1	2	1	0	0.0361336262404
106	p	04	004	482|183|220|377	0.0946297	7848.59	1	193	1	2	0	0	0.0361336262404
107	p	04	005	482|571|220|379	0.139816	11657.9	1	44	0	0	3	0	0.0361336262404
108	p	04	006	722|571|220|379	0.145732	12151.2	1	67	1	1	2	0	0.0361336262404
109	p	04	007	962|571|220|379	0.135168	11270.3	1	76	1	1	1	0	0.0361336262404
110	p	04	008	1202|571|220|379	0.1369	11414.7	1	22	0	0	2	0	0.0361336262404
111	p	04	009	961|963|222|375	0.125476	10445.9	1	53	1	1	0	0	0.0361336262404
112	p	04	010	481|964|221|375	0.114992	9529.98	1	202	1	1	1	0	0.0361336262404
113	p	04	011	721|964|222|400	0.259705	23061.8	1	83	1	1	2	0	0.0361336262404
114	p	04	012	1201|964|222|400	0.159737	14184.6	1	57	1	1	1	0	0.0361336262404
115	p	04	013	482|1379|221|376	0.143067	11888.3	1	73	1	1	1	0	0.0361336262404
116	p	04	014	722|1379|220|376	0.265715	21979.9	1	20	0	0	1	0	0.0361336262404
117	p	04	015	962|1379|220|376	0.261633	21642.2	1	33	1	1	1	0	0.0361336262404
118	p	04	016	1201|1379|221|402	0.214799	19083.1	1	1	0	0	0	0	0.0361336262404
119	p	04	017	482|1795|221|401	0.246471	21842.5	1	35	1	1	0	0	0.0361336262404
120	p	04	018	722|1795|221|376	0.252178	20955.0	1	56	1	1	0	0	0.0361336262404
121	p	04	019	1202|1795|220|402	0.196239	17355.4	1	67	1	1	0	0	0.0361336262404
122	p	04	020	962|1796|220|375	0.126109	10404.0	1	42	1	1	0	0	0.0361336262404
123	p	04	021	482|2211|221|402	0.238939	21227.8	1	70	1	1	0	0	0.0361336262404
124	p	04	022	721|2211|222|376	0.116813	9750.64	1	71	1	1	0	0	0.0361336262404
125	p	04	023	962|2211|221|376	0.154703	12855.2	1	125	1	1	0	0	0.0361336262404
126	p	04	024	1201|2211|221|402	0.0719918	6395.89	1	1	0	0	0	0	0.0361336262404
127	p	04	025	481|2628|222|401	0.114521	10194.9	1	68	1	1	0	0	0.0361336262404
128	p	04	026	722|2628|221|376	0.150372	12495.3	1	54	1	1	0	0	0.0361336262404
129	p	04	027	962|2628|221|401	0.162217	14375.8	1	75	1	1	0	0	0.0361336262404
130	p	04	028	1202|2628|220|401	0.185544	16368.7	1	217	1	2	1	0	0.0361336262404
131	p	04	029	721|3043|222|375	0.115481	9613.76	1	51	1	1	1	0	0.0361336262404
132	p	04	030	961|3043|222|401	0.124912	11119.9	1	178	1	1	1	0	0.0361336262404
133	p	04	031	1201|3043|221|376	0.125948	10465.8	1	11	0	0	0	0	0.0361336262404
134	p	04	032	481|3044|222|400	0.110289	9793.69	1	52	1	1	0	0	0.0361336262404
135	p	04	033	483|3458|220|402	0.133906	11842.6	1	0	0	0	0	0	0.0361336262404
136	p	04	034	962|3458|221|401	0.184471	16348.0	1	109	1	1	2	0	0.0361336262404
137	p	04	035	1202|3458|220|402	0.140469	12423.1	1	111	1	1	1	0	0.0361336262404
138	p	04	036	721|3459|222|400	0.204874	18192.8	1	57	1	1	2	0	0.0361336262404
139	p	04	037	1202|3873|220|378	0.262811	21855.4	1	21	0	0	1	0	0.0361336262404
140	p	04	038	482|3874|221|402	0.118039	10486.8	1	242	1	3	2	0	0.0361336262404
141	p	04	039	722|3874|221|402	0.242415	21536.6	1	104	1	1	1	0	0.0361336262404
142	p	04	040	962|3874|221|377	0.265022	22080.9	1	51	1	1	1	0	0.0361336262404
143	p	04	041	722|4288|220|379	0.138603	11556.7	1	195	1	2	1	0	0.0361336262404
144	p	04	042	483|4290|219|402	0.210477	18529.9	1	99	1	1	2	0	0.0361336262404
145	p	04	043	962|4290|221|377	0.255773	21310.2	1	63	1	1	0	0	0.0361336262404
146	p	04	044	1202|4290|221|402	0.111794	9932.0	1	143	1	1	1	0	0.0361336262404
147	p	04	045	1201|4704|221|538	0.0889228	10572.7	1	207	1	2	1	0	0.0361336262404
148	p	04	046	482|4705|221|402	0.104653	9297.57	1	153	1	3	3	0	0.0361336262404
149	p	04	047	721|4706|222|401	0.113851	10135.3	1	161	1	2	1	0	0.0361336262404
150	p	04	048	961|4707|222|400	0.128258	11389.3	1	7	0	0	3	0	0.0361336262404
151	p	04	049	962|5256|220|428	0.121757	11464.7	1	89	1	1	2	0	0.0361336262404
152	p	04	050	722|5257|220|377	0.142377	11808.7	1	675	1	3	3	0	0.0361336262404
153	p	04	051	1202|5257|220|402	0.218464	19321.0	1	50	1	1	0	0	0.0361336262404
154	p	04	052	482|5261|215|399	0.0843783	7238.39	1	198	1	3	2	0	0.0361336262404
155	p	04	053	482|5699|221|401	0.0843087	7471.52	1	193	1	4	3	0	0.0361336262404
156	p	04	054	721|5699|222|535	0.0790538	9389.22	1	37	1	1	2	0	0.0361336262404
157	p	04	055	961|5699|222|376	0.12295	10262.9	1	152	1	1	2	0	0.0361336262404
158	p	04	056	1202|5700|220|400	0.28841	25380.1	1	88	1	1	0	0	0.0361336262404
159	p	04	057	961|6248|221|402	0.112033	9953.28	1	149	1	2	2	0	0.0361336262404
160	p	04	058	1201|6248|222|402	0.211719	18894.7	1	146	1	1	0	0	0.0361336262404
161	p	04	059	481|6249|223|400	0.054326	4845.88	1	500	1	4	4	0	0.0361336262404
162	p	04	060	721|6249|223|400	0.110559	9861.89	1	66	1	1	4	0	0.0361336262404
163	p	04	061	481|6663|221|429	0.0574907	5450.63	1	373	1	3	3	1	0.0361336262404
164	p	04	062	722|6663|220|378	0.241619	20093.0	1	63	1	1	2	0	0.0361336262404
165	p	04	063	961|6663|221|403	0.185748	16543.3	1	51	1	1	0	0	0.0361336262404
166	p	04	064	1202|6664|220|402	0.184024	16275.1	1	71	1	1	1	0	0.0361336262404
167	p	04	065	482|7106|221|401	0.128237	11364.5	1	58	1	1	1	0	0.0361336262404
168	p	04	066	722|7106|221|376	0.123296	10245.4	1	20	0	0	0	0	0.0361336262404
169	p	04	067	962|7106|220|376	0.145631	12046.6	1	0	0	0	0	0	0.0361336262404
170	p	04	068	1201|7106|221|401	0.222828	19747.3	1	0	0	0	0	0	0.0361336262404
171	p	04	069	723|7521|220|379	0.151002	12590.5	1	68	1	1	0	0	0.0361336262404
172	p	04	070	962|7521|221|403	0.13276	11824.0	1	69	1	1	0	0	0.0361336262404
173	p	04	071	482|7522|221|402	0.121347	10780.7	1	166	1	2	1	0	0.0361336262404
174	p	04	072	1202|7522|220|403	0.233791	20727.9	1	0	0	0	0	0	0.0361336262404
175	p	04	073	962|7932|220|568	0.0824949	10308.6	1	53	1	1	1	0	0.0361336262404
176	p	04	074	1203|7932|219|408	0.0614083	5486.95	1	138	1	1	0	0	0.0361336262404
177	p	04	075	482|7938|221|378	0.127586	10658.3	1	165	1	2	2	0	0.0361336262404
178	p	04	076	722|7938|220|402	0.0760465	6725.56	1	25	0	0	0	0	0.0361336262404
179	p	04	077	961|8514|221|402	0.108193	9612.09	1	41	1	1	0	0	0.0361336262404
180	p	04	078	482|8515|221|401	0.114822	10175.6	1	85	1	2	1	0	0.0361336262404
181	p	04	079	721|8515|221|401	0.130515	11566.4	1	70	1	1	0	0	0.0361336262404
182	p	04	080	1201|8515|221|401	0.116514	10325.6	1	72	1	1	0	0	0.0361336262404
183	p	04	081	481|8930|222|403	0.083971	7512.55	1	108	1	1	1	0	0.0361336262404
184	p	04	082	722|8930|220|404	0.285639	25387.6	1	24	0	0	1	0	0.0361336262404
185	p	04	083	961|8930|221|378	0.144332	12057.2	1	35	1	1	0	0	0.0361336262404
186	p	04	084	1201|8931|222|377	0.239076	20009.3	1	59	1	1	0	0	0.0361336262404
187	p	04	085	482|9348|222|427	0.0821667	7788.91	1	134	1	2	1	0	0.0361336262404
188	p	04	086	722|9348|221|402	0.244429	21715.6	1	46	1	1	0	0	0.0361336262404
189	p	04	087	961|9348|222|563	0.100756	12593.1	1	21	0	0	0	0	0.0361336262404
190	p	04	088	1201|9348|221|402	0.0656221	5830.0	1	7	0	0	0	0	0.0361336262404
191	p	04	089	481|9925|223|453	0.152308	15386.0	1	36	1	1	0	0	0.0361336262404
192	p	04	090	722|9926|221|402	0.213093	18931.6	1	58	1	1	1	0	0.0361336262404
193	p	04	091	961|9926|222|373	0.124111	10277.2	1	461	1	3	0	0	0.0361336262404
194	p	04	092	1202|9926|221|402	0.0799647	7104.23	1	53	1	1	0	0	0.0361336262404
195	p	04	093	482|10391|221|404	0.136067	12148.6	1	129	1	2	1	0	0.0361336262404
196	p	04	094	722|10391|221|377	0.173776	14478.5	1	38	1	1	3	0	0.0361336262404
197	p	04	095	962|10391|221|377	0.101758	8478.2	1	174	1	1	0	0	0.0361336262404
198	p	04	096	1202|10391|220|404	0.171391	15233.2	1	0	0	0	0	0	0.0361336262404
199	p	04	097	482|10809|221|427	0.114152	10772.2	1	36	0	0	1	0	0.0361336262404
200	p	04	098	721|10809|222|402	0.143738	12827.7	1	47	1	1	2	0	0.0361336262404
201	p	04	099	961|10809|221|402	0.158151	14050.4	1	241	1	1	1	0	0.0361336262404
202	p	04	100	1202|10809|220|402	0.132899	11753.6	1	54	1	1	1	0	0.0361336262404
203	p	04	101	482|11251|221|401	0.0672339	5958.33	1	38	1	1	0	0	0.0361336262404
204	p	04	102	722|11251|221|401	0.111801	9907.88	1	53	1	1	0	0	0.0361336262404
205	p	04	103	962|11251|220|401	0.0662864	5847.79	1	81	1	1	1	0	0.0361336262404
206	p	04	104	1202|11251|220|375	0.127778	10541.7	1	0	0	0	0	0	0.0361336262404
207	p	04	105	1201|11664|221|540	0.086394	10310.3	1	42	1	1	0	0	0.0361336262404
208	p	04	106	962|11665|220|403	0.0748584	6636.95	1	36	1	1	0	0	0.0361336262404
209	p	04	107	483|11666|220|429	0.0888301	8383.78	1	60	1	1	1	0	0.0361336262404
210	p	04	108	722|11666|221|377	0.18268	15220.4	1	1	0	0	0	0	0.0361336262404
211	p	04	109	482|12217|221|377	0.133382	11113.0	1	38	1	1	0	0	0.0361336262404
212	p	04	110	1202|12217|221|403	0.0970729	8645.61	1	1	0	0	0	0	0.0361336262404
213	p	04	111	722|12218|221|403	0.126642	11279.1	1	26	0	0	0	0	0.0361336262404
214	p	04	112	962|12218|220|403	0.107543	9534.78	1	8	0	0	0	0	0.0361336262404
215	p	04	113	482|12634|220|427	0.129972	12209.6	1	58	1	1	0	0	0.0361336262404
216	p	04	114	722|12634|220|377	0.101242	8397.04	1	185	1	2	0	0	0.0361336262404
217	p	04	115	1201|12634|222|402	0.154735	13809.2	1	0	0	0	0	0	0.0361336262404
218	p	04	116	962|12635|221|401	0.114101	10111.8	1	82	1	1	0	0	0.0361336262404
219	p	04	117	482|13076|221|401	0.0819241	7260.19	1	27	0	0	0	0	0.0361336262404
220	p	04	118	722|13076|220|401	0.0816927	7206.93	1	63	1	2	0	0	0.0361336262404
221	p	04	119	962|13076|221|401	0.210033	18613.3	1	27	0	0	0	0	0.0361336262404
222	p	04	120	1202|13076|220|401	0.14085	12425.8	1	0	0	0	0	0	0.0361336262404
223	p	04	121	482|13492|221|402	0.073061	6490.89	1	0	0	0	0	0	0.0361336262404
224	p	04	122	723|13492|219|427	0.0774715	7244.59	1	1	0	0	0	0	0.0361336262404
225	p	04	123	962|13492|221|373	0.0740475	6103.96	1	0	0	0	0	0	0.0361336262404
226	p	04	124	1203|13492|219|427	0.0728207	6809.69	1	0	0	0	0	0	0.0361336262404
227	p	04	125	721|13933|221|402	0.0854133	7588.29	0	0	0	0	0	0	0.0361336262404
228	p	04	126	1201|13933|222|402	0.0809655	7225.68	0	0	0	0	0	0	0.0361336262404
229	p	04	127	481|13935|221|400	0.117946	10426.4	0	0	0	0	0	0	0.0361336262404
230	p	04	128	962|13935|222|374	0.0846482	7028.17	0	0	0	0	0	0	0.0361336262404
231	p	04	129	722|14348|219|403	0.100594	8878.09	0	0	0	0	0	0	0.0361336262404
232	p	04	130	962|14348|219|403	0.119019	10504.2	0	0	0	0	0	0	0.0361336262404
233	p	04	131	1202|14348|219|403	0.147775	13042.2	0	0	0	0	0	0	0.0361336262404
234	p	04	132	481|14349|221|402	0.114218	10147.3	0	0	0	0	0	0	0.0361336262404
235	p	04	133	481|14764|221|403	0.15108	13455.6	0	0	0	0	0	0	0.0361336262404
