	trial_id_task	subject_id	aoi_id_product	x	y	w	h	saliency
0	c.png	4	1	481	182	221	402	1048.9205696835206
1	c.png	4	2	721	182	222	402	3742.7928594567406
2	c.png	4	3	961	182	221	428	1048.5190282342837
3	c.png	4	4	1201	182	221	402	27303.915894377722
4	c.png	4	5	482	624	219	403	1420.6601922752934
5	c.png	4	6	721	624	221	377	127.52896355750731
6	c.png	4	7	962	624	220	403	2222.662862774393
7	c.png	4	8	1201	624	221	377	8003.304586540171
8	c.png	4	9	482	1040	221	404	1696.5609861961768
9	c.png	4	10	722	1040	221	404	5314.271657567559
10	c.png	4	11	962	1040	221	404	7472.682528698204
11	c.png	4	12	1200	1040	224	377	839.7131469033479
12	c.png	4	13	1199	1458	224	404	3900.794024930715
13	c.png	4	14	479	1459	224	428	13305.496585535231
14	c.png	4	15	719	1459	224	403	1335.44650529755
15	c.png	4	16	959	1459	224	402	21501.4163537117
16	c.png	4	17	479	1901	222	402	5819.829681376495
17	c.png	4	18	719	1901	222	402	222.69480079925407
18	c.png	4	19	959	1901	222	402	6387.087752794725
19	c.png	4	20	1199	1901	222	402	12410.692580557596
20	c.png	4	21	479	2317	223	402	337.1428890728379
21	c.png	4	22	719	2317	223	402	138.7591058491639
22	c.png	4	23	959	2317	223	402	297.491393500428
23	c.png	4	24	1199	2317	222	455	5598.0002756208005
24	c.png	4	25	481	2785	221	401	2475.7180387355584
25	c.png	4	26	721	2785	222	401	1711.319601729086
26	c.png	4	27	961	2785	221	375	3170.381026746047
27	c.png	4	28	1202	2785	220	401	26564.687484379407
28	c.png	4	29	961	3199	221	429	11030.474496861383
29	c.png	4	30	481	3200	221	402	9028.72210851334
30	c.png	4	31	721	3200	221	402	4301.48131657698
31	c.png	4	32	1201	3201	221	401	2365.929688359558
32	c.png	4	33	482	3643	220	402	22095.146596175655
33	c.png	4	34	722	3643	220	402	9419.563464404806
34	c.png	4	35	962	3643	220	402	613.2845177178195
35	c.png	4	36	1202	3643	220	402	12547.262069197861
36	c.png	4	37	481	4060	221	400	3313.4507131168284
37	c.png	4	38	721	4060	221	400	2424.056939738341
38	c.png	4	39	961	4060	221	400	2328.575537135537
39	c.png	4	40	1201	4060	221	400	3227.5089123035746
40	c.png	4	41	481	4475	222	403	1778.93204923104
41	c.png	4	42	721	4475	221	428	13102.27809658064
42	c.png	4	43	961	4475	222	403	11467.679957196391
43	c.png	4	44	1201	4475	222	403	11962.094387551877
44	c.png	4	45	481	4916	221	456	13902.480697556903
45	c.png	4	46	722	4916	220	432	8071.728486693488
46	c.png	4	47	962	4916	220	432	10917.260901336449
47	y.png	4	1	481	183	221	563	18519.897762265882
48	y.png	4	2	721	183	222	374	1553.8540850508189
49	y.png	4	3	961	183	221	403	4941.225678011864
50	y.png	4	4	1201	183	221	402	33732.17978161832
51	y.png	4	5	961	759	221	400	2281.2858284416584
52	y.png	4	6	481	760	221	400	1751.0716045971822
53	y.png	4	7	721	760	221	400	3525.7805477974566
54	y.png	4	8	1201	760	221	399	14300.756115576147
55	y.png	4	9	482	1174	220	402	1993.8698800816042
56	y.png	4	10	722	1174	220	403	1515.4020814805265
57	y.png	4	11	962	1174	220	403	2804.777380080376
58	y.png	4	12	1202	1174	220	402	7952.735185914837
59	y.png	4	13	961	1590	221	538	11072.255324675745
60	y.png	4	14	722	1591	220	401	1934.0268733149537
61	y.png	4	15	1202	1591	220	401	15457.50072504348
62	y.png	4	16	482	1592	220	400	895.404271923411
63	y.png	4	17	482	2140	220	405	1335.4131884329763
64	y.png	4	18	962	2141	220	428	3046.6655750502487
65	y.png	4	19	1201	2141	221	429	14905.201424573295
66	y.png	4	20	722	2142	220	403	1950.8069809020285
67	y.png	4	21	722	2581	222	403	1635.7469541005403
68	y.png	4	22	481	2582	221	537	7480.370297773055
69	y.png	4	23	1201	2582	221	428	14300.000174191997
70	y.png	4	24	962	2583	220	401	1123.2731653339204
71	y.png	4	25	722	3133	220	377	3250.2156265914846
72	y.png	4	26	962	3133	220	402	2923.6470318808792
73	y.png	4	27	1201	3133	221	402	15282.382107592879
74	y.png	4	28	482	3134	221	401	980.0053022442028
75	y.png	4	29	482	3549	220	429	2725.003253695582
76	y.png	4	30	722	3549	220	430	841.1556346814929
77	y.png	4	31	961	3549	221	378	5464.925235844913
78	y.png	4	32	1202	3549	220	430	49538.22777997868
79	y.png	4	33	480	3992	222	539	10688.292554162259
80	y.png	4	34	721	3992	221	404	1791.790495102309
81	y.png	4	35	961	3992	221	404	2133.0811438334563
82	y.png	4	36	1202	3992	220	429	13733.457492988455
83	y.png	4	37	1201	4545	221	402	12478.780201974772
84	y.png	4	38	482	4546	220	427	2141.1094994669943
85	y.png	4	39	721	4546	221	401	1461.726781796719
86	y.png	4	40	961	4546	221	402	4319.382121285753
87	y.png	4	41	482	4987	220	376	1757.1818783863123
88	y.png	4	42	722	4987	220	428	2532.6004440444667
89	y.png	4	43	961	4987	221	428	2678.068583905487
90	y.png	4	44	1201	4987	221	427	12111.673222462217
91	y.png	4	45	482	5426	215	428	6155.141246163354
92	y.png	4	46	721	5429	221	427	21857.83346931869
93	y.png	4	47	961	5429	221	427	8612.266317576617
94	y.png	4	48	1201	5429	221	427	8500.580901471156
95	y.png	4	49	962	5870	220	403	4393.60384990141
96	y.png	4	50	482	5871	215	428	3173.454654078615
97	y.png	4	51	722	5871	220	402	1110.2070027738494
98	y.png	4	52	1202	5871	220	402	15000.531349980089
99	y.png	4	53	482	6312	221	428	15074.204971150146
100	y.png	4	54	721	6312	222	427	7085.105797038767
101	y.png	4	55	961	6312	221	537	14960.849514549664
102	y.png	4	56	1201	6312	222	454	34409.03154129781
103	p.png	4	1	722	182	221	378	14196.984732717001
104	p.png	4	2	962	182	220	378	9452.131874717768
105	p.png	4	3	1202	182	220	378	1589.6660662504307
106	p.png	4	4	482	183	220	377	7448.089057416071
107	p.png	4	5	482	571	220	379	37289.25860620165
108	p.png	4	6	722	571	220	379	54666.20837900624
109	p.png	4	7	962	571	220	379	41171.449051579795
110	p.png	4	8	1202	571	220	379	18646.553982250887
111	p.png	4	9	961	963	222	375	57093.0861253602
112	p.png	4	10	481	964	221	375	48652.2298030961
113	p.png	4	11	721	964	222	400	92717.19297214391
114	p.png	4	12	1201	964	222	400	34628.65429019368
115	p.png	4	13	482	1379	221	376	59344.29472271876
116	p.png	4	14	722	1379	220	376	93194.58064032844
117	p.png	4	15	962	1379	220	376	75664.535784266
118	p.png	4	16	1201	1379	221	402	41888.37185959481
119	p.png	4	17	482	1795	221	401	69723.38348126058
120	p.png	4	18	722	1795	221	376	84570.01831475108
121	p.png	4	19	1202	1795	220	402	32677.412490092385
122	p.png	4	20	962	1796	220	375	52901.04165506171
123	p.png	4	21	482	2211	221	402	51687.75201726882
124	p.png	4	22	721	2211	222	376	52619.7053463156
125	p.png	4	23	962	2211	221	376	43615.3481461607
126	p.png	4	24	1201	2211	221	402	20815.359044062316
127	p.png	4	25	481	2628	222	401	36934.30097436142
128	p.png	4	26	722	2628	221	376	54022.24407384702
129	p.png	4	27	962	2628	221	401	44673.88135238861
130	p.png	4	28	1202	2628	220	401	23810.21496462775
131	p.png	4	29	721	3043	222	375	51292.916599449454
132	p.png	4	30	961	3043	222	401	46687.94048769965
133	p.png	4	31	1201	3043	221	376	23502.215973615384
134	p.png	4	32	481	3044	222	400	38294.01143791509
135	p.png	4	33	483	3458	220	402	51692.50654835257
136	p.png	4	34	962	3458	221	401	69758.17000104078
137	p.png	4	35	1202	3458	220	402	34525.78181062365
138	p.png	4	36	721	3459	222	400	86867.72757108923
139	p.png	4	37	1202	3873	220	378	44596.51380587315
140	p.png	4	38	482	3874	221	402	56703.415173523535
141	p.png	4	39	722	3874	221	402	98957.79156228332
142	p.png	4	40	962	3874	221	377	79043.74325432924
143	p.png	4	41	722	4288	220	379	64550.744785968134
144	p.png	4	42	483	4290	219	402	56372.136746835065
145	p.png	4	43	962	4290	221	377	66570.33081992646
146	p.png	4	44	1202	4290	221	402	30580.608335568446
147	p.png	4	45	1201	4704	221	538	27713.04458713147
148	p.png	4	46	482	4705	221	402	35127.16677851924
149	p.png	4	47	721	4706	222	401	48211.15933442107
150	p.png	4	48	961	4707	222	400	38638.7389669955
151	p.png	4	49	962	5256	220	428	39439.67368282268
152	p.png	4	50	722	5257	220	377	44166.80768071248
153	p.png	4	51	1202	5257	220	402	27535.7211955701
154	p.png	4	52	482	5261	215	399	25639.215746396752
155	p.png	4	53	482	5699	221	401	25430.31810680792
156	p.png	4	54	721	5699	222	535	50677.454374540845
157	p.png	4	55	961	5699	222	376	33626.45098207061
158	p.png	4	56	1202	5700	220	400	31751.279845599016
159	p.png	4	57	961	6248	221	402	43937.70042316686
160	p.png	4	58	1201	6248	222	402	31360.68204413994
161	p.png	4	59	481	6249	223	400	27003.404227696457
162	p.png	4	60	721	6249	223	400	47321.97422230084
163	p.png	4	61	481	6663	221	429	35196.942913481274
164	p.png	4	62	722	6663	220	378	70955.97560326563
165	p.png	4	63	961	6663	221	403	57830.35326956428
166	p.png	4	64	1202	6664	220	402	33549.05942938728
167	p.png	4	65	482	7106	221	401	39228.04118277202
168	p.png	4	66	722	7106	221	376	53868.940208766304
169	p.png	4	67	962	7106	220	376	49309.24236897213
170	p.png	4	68	1201	7106	221	401	33348.78850638285
171	p.png	4	69	723	7521	220	379	55454.742942223034
172	p.png	4	70	962	7521	221	403	43987.02097589457
173	p.png	4	71	482	7522	221	402	43013.81667350456
174	p.png	4	72	1202	7522	220	403	31204.479499252455
175	p.png	4	73	962	7932	220	568	43642.35825951645
176	p.png	4	74	1203	7932	219	408	17944.734103113988
177	p.png	4	75	482	7938	221	378	31450.577111927138
178	p.png	4	76	722	7938	220	402	36313.330114557575
179	p.png	4	77	961	8514	221	402	39181.01531498042
180	p.png	4	78	482	8515	221	401	37310.01931601968
181	p.png	4	79	721	8515	221	401	53239.104686050225
182	p.png	4	80	1201	8515	221	401	21638.61072914606
183	p.png	4	81	481	8930	222	403	44997.52834262555
184	p.png	4	82	722	8930	220	404	88936.05861918634
185	p.png	4	83	961	8930	221	378	51736.05208599612
186	p.png	4	84	1201	8931	222	377	33540.94404461915
187	p.png	4	85	482	9348	222	427	43991.520114024155
188	p.png	4	86	722	9348	221	402	80579.99611380533
189	p.png	4	87	961	9348	222	563	66383.31154222449
190	p.png	4	88	1201	9348	221	402	23805.294916448067
191	p.png	4	89	481	9925	223	453	56441.391844405036
192	p.png	4	90	722	9926	221	402	74124.154537179
193	p.png	4	91	961	9926	222	373	43562.11902352532
194	p.png	4	92	1202	9926	221	402	21084.776406894205
195	p.png	4	93	482	10391	221	404	44918.02874363574
196	p.png	4	94	722	10391	221	377	62636.0551801278
197	p.png	4	95	962	10391	221	377	39439.70877178756
198	p.png	4	96	1202	10391	220	404	23511.876193738466
199	p.png	4	97	482	10809	221	427	38445.88133213114
200	p.png	4	98	721	10809	222	402	51122.66419406089
201	p.png	4	99	961	10809	221	402	42127.25376422808
202	p.png	4	100	1202	10809	220	402	19587.77335189895
203	p.png	4	101	482	11251	221	401	25067.894051943586
204	p.png	4	102	722	11251	221	401	40514.138220375375
205	p.png	4	103	962	11251	220	401	26157.37153291623
206	p.png	4	104	1202	11251	220	375	17445.645421461526
207	p.png	4	105	1201	11664	221	540	23106.18056167053
208	p.png	4	106	962	11665	220	403	26638.189259885403
209	p.png	4	107	483	11666	220	429	28964.31042876101
210	p.png	4	108	722	11666	221	377	47175.494010132
211	p.png	4	109	482	12217	221	377	29953.906955876293
212	p.png	4	110	1202	12217	221	403	17171.831011239075
213	p.png	4	111	722	12218	221	403	42064.354318687816
214	p.png	4	112	962	12218	220	403	32017.933536042412
215	p.png	4	113	482	12634	220	427	34918.53043519159
216	p.png	4	114	722	12634	220	377	39492.65478350017
217	p.png	4	115	1201	12634	222	402	22076.775090807292
218	p.png	4	116	962	12635	221	401	37151.32435657209
219	p.png	4	117	482	13076	221	401	25042.073223424035
220	p.png	4	118	722	13076	220	401	35834.43823032326
221	p.png	4	119	962	13076	221	401	46763.74170398963
222	p.png	4	120	1202	13076	220	401	21574.72408690412
223	p.png	4	121	482	13492	221	402	24145.5644436095
224	p.png	4	122	723	13492	219	427	35440.75830638646
225	p.png	4	123	962	13492	221	373	24272.75018775071
226	p.png	4	124	1203	13492	219	427	16664.18198479548
227	p.png	4	125	721	13933	221	402	38543.90797881474
228	p.png	4	126	1201	13933	222	402	17870.960801774774
229	p.png	4	127	481	13935	221	400	35689.38885813719
230	p.png	4	128	962	13935	222	374	26940.681877587154
231	p.png	4	129	722	14348	219	403	33140.7643055355
232	p.png	4	130	962	14348	219	403	30940.86544286315
233	p.png	4	131	1202	14348	219	403	13117.007324798162
234	p.png	4	132	481	14349	221	402	28162.235715772476
235	p.png	4	133	481	14764	221	403	3445.1682052971505
